%YAML 1.1
%TAG !u! tag:unity3d.com,2011:
--- !u!1 &6282024368224912896
GameObject:
  m_ObjectHideFlags: 0
  m_CorrespondingSourceObject: {fileID: 0}
  m_PrefabInstance: {fileID: 0}
  m_PrefabAsset: {fileID: 0}
  serializedVersion: 6
  m_Component:
  - component: {fileID: 6282024368224912902}
  - component: {fileID: 6282024368224912903}
  - component: {fileID: 6282024368224912900}
  - component: {fileID: 6282024368224912901}
  - component: {fileID: 6282024368224912898}
  - component: {fileID: 6282024368224912905}
  - component: {fileID: 6282024368224912899}
  m_Layer: 0
  m_Name: 'Darkness Enemy '
  m_TagString: Enemy
  m_Icon: {fileID: 0}
  m_NavMeshLayer: 0
  m_StaticEditorFlags: 0
  m_IsActive: 1
--- !u!4 &6282024368224912902
Transform:
  m_ObjectHideFlags: 0
  m_CorrespondingSourceObject: {fileID: 0}
  m_PrefabInstance: {fileID: 0}
  m_PrefabAsset: {fileID: 0}
  m_GameObject: {fileID: 6282024368224912896}
  m_LocalRotation: {x: 0, y: 0, z: 0, w: 1}
  m_LocalPosition: {x: 4.18, y: 1.458, z: 24.68}
  m_LocalScale: {x: 2, y: 2, z: 2}
  m_Children:
  - {fileID: 6282024368608527584}
  m_Father: {fileID: 0}
  m_RootOrder: 0
  m_LocalEulerAnglesHint: {x: 0, y: 0, z: 0}
--- !u!33 &6282024368224912903
MeshFilter:
  m_ObjectHideFlags: 0
  m_CorrespondingSourceObject: {fileID: 0}
  m_PrefabInstance: {fileID: 0}
  m_PrefabAsset: {fileID: 0}
  m_GameObject: {fileID: 6282024368224912896}
  m_Mesh: {fileID: 10207, guid: 0000000000000000e000000000000000, type: 0}
--- !u!23 &6282024368224912900
MeshRenderer:
  m_ObjectHideFlags: 0
  m_CorrespondingSourceObject: {fileID: 0}
  m_PrefabInstance: {fileID: 0}
  m_PrefabAsset: {fileID: 0}
  m_GameObject: {fileID: 6282024368224912896}
  m_Enabled: 1
  m_CastShadows: 1
  m_ReceiveShadows: 1
  m_DynamicOccludee: 1
  m_MotionVectors: 1
  m_LightProbeUsage: 1
  m_ReflectionProbeUsage: 1
  m_RenderingLayerMask: 1
  m_RendererPriority: 0
  m_Materials:
  - {fileID: 2100000, guid: 65d2c7628c6e9be4b835512e21619073, type: 2}
  m_StaticBatchInfo:
    firstSubMesh: 0
    subMeshCount: 0
  m_StaticBatchRoot: {fileID: 0}
  m_ProbeAnchor: {fileID: 0}
  m_LightProbeVolumeOverride: {fileID: 0}
  m_ScaleInLightmap: 1
  m_PreserveUVs: 0
  m_IgnoreNormalsForChartDetection: 0
  m_ImportantGI: 0
  m_StitchLightmapSeams: 0
  m_SelectedEditorRenderState: 3
  m_MinimumChartSize: 4
  m_AutoUVMaxDistance: 0.5
  m_AutoUVMaxAngle: 89
  m_LightmapParameters: {fileID: 0}
  m_SortingLayerID: 0
  m_SortingLayer: 0
  m_SortingOrder: 0
--- !u!135 &6282024368224912901
SphereCollider:
  m_ObjectHideFlags: 0
  m_CorrespondingSourceObject: {fileID: 0}
  m_PrefabInstance: {fileID: 0}
  m_PrefabAsset: {fileID: 0}
  m_GameObject: {fileID: 6282024368224912896}
  m_Material: {fileID: 0}
  m_IsTrigger: 0
  m_Enabled: 1
  serializedVersion: 2
  m_Radius: 0.5
  m_Center: {x: 0, y: 0, z: 0}
--- !u!54 &6282024368224912898
Rigidbody:
  m_ObjectHideFlags: 0
  m_CorrespondingSourceObject: {fileID: 0}
  m_PrefabInstance: {fileID: 0}
  m_PrefabAsset: {fileID: 0}
  m_GameObject: {fileID: 6282024368224912896}
  serializedVersion: 2
  m_Mass: 50
  m_Drag: 0
  m_AngularDrag: 0.05
  m_UseGravity: 1
  m_IsKinematic: 0
  m_Interpolate: 0
  m_Constraints: 0
  m_CollisionDetection: 0
--- !u!114 &6282024368224912905
MonoBehaviour:
  m_ObjectHideFlags: 0
  m_CorrespondingSourceObject: {fileID: 0}
  m_PrefabInstance: {fileID: 0}
  m_PrefabAsset: {fileID: 0}
  m_GameObject: {fileID: 6282024368224912896}
  m_Enabled: 1
  m_EditorHideFlags: 0
  m_Script: {fileID: 11500000, guid: 1c3b54cba754f254e8555321e475414e, type: 3}
  m_Name: 
  m_EditorClassIdentifier: 
--- !u!108 &6282024368224912899
Light:
  m_ObjectHideFlags: 0
  m_CorrespondingSourceObject: {fileID: 0}
  m_PrefabInstance: {fileID: 0}
  m_PrefabAsset: {fileID: 0}
  m_GameObject: {fileID: 6282024368224912896}
  m_Enabled: 1
  serializedVersion: 8
  m_Type: 2
  m_Color: {r: 0.74191046, g: 0.0045834924, b: 0.9716981, a: 1}
  m_Intensity: 3
  m_Range: 10
  m_SpotAngle: 30
  m_CookieSize: 10
  m_Shadows:
    m_Type: 0
    m_Resolution: -1
    m_CustomResolution: -1
    m_Strength: 1
    m_Bias: 0.05
    m_NormalBias: 0.4
    m_NearPlane: 0.2
  m_Cookie: {fileID: 0}
  m_DrawHalo: 0
  m_Flare: {fileID: 0}
  m_RenderMode: 0
  m_CullingMask:
    serializedVersion: 2
    m_Bits: 4294967295
  m_Lightmapping: 4
  m_LightShadowCasterMode: 0
  m_AreaSize: {x: 1, y: 1}
  m_BounceIntensity: 3
  m_ColorTemperature: 6570
  m_UseColorTemperature: 0
  m_ShadowRadius: 0
  m_ShadowAngle: 0
--- !u!1001 &6282024368608695340
PrefabInstance:
  m_ObjectHideFlags: 0
  serializedVersion: 2
  m_Modification:
    m_TransformParent: {fileID: 6282024368224912902}
    m_Modifications:
    - target: {fileID: 130486, guid: ac442fd7a0bbbec42910ecf3b43e7548, type: 3}
      propertyPath: m_Name
      value: Sprays_06
      objectReference: {fileID: 0}
    - target: {fileID: 430284, guid: ac442fd7a0bbbec42910ecf3b43e7548, type: 3}
      propertyPath: m_LocalPosition.x
      value: 1.554
      objectReference: {fileID: 0}
    - target: {fileID: 430284, guid: ac442fd7a0bbbec42910ecf3b43e7548, type: 3}
      propertyPath: m_LocalPosition.y
      value: 0.202232
      objectReference: {fileID: 0}
    - target: {fileID: 430284, guid: ac442fd7a0bbbec42910ecf3b43e7548, type: 3}
      propertyPath: m_LocalPosition.z
      value: -0.006
      objectReference: {fileID: 0}
    - target: {fileID: 430284, guid: ac442fd7a0bbbec42910ecf3b43e7548, type: 3}
      propertyPath: m_LocalRotation.x
      value: -0
      objectReference: {fileID: 0}
    - target: {fileID: 430284, guid: ac442fd7a0bbbec42910ecf3b43e7548, type: 3}
      propertyPath: m_LocalRotation.y
      value: -0.7078741
      objectReference: {fileID: 0}
    - target: {fileID: 430284, guid: ac442fd7a0bbbec42910ecf3b43e7548, type: 3}
      propertyPath: m_LocalRotation.z
      value: -0
      objectReference: {fileID: 0}
    - target: {fileID: 430284, guid: ac442fd7a0bbbec42910ecf3b43e7548, type: 3}
      propertyPath: m_LocalRotation.w
      value: 0.70633864
      objectReference: {fileID: 0}
    - target: {fileID: 430284, guid: ac442fd7a0bbbec42910ecf3b43e7548, type: 3}
      propertyPath: m_RootOrder
      value: 0
      objectReference: {fileID: 0}
    - target: {fileID: 430284, guid: ac442fd7a0bbbec42910ecf3b43e7548, type: 3}
      propertyPath: m_LocalEulerAnglesHint.x
      value: 0
      objectReference: {fileID: 0}
    - target: {fileID: 430284, guid: ac442fd7a0bbbec42910ecf3b43e7548, type: 3}
      propertyPath: m_LocalEulerAnglesHint.y
      value: -90.124
      objectReference: {fileID: 0}
    - target: {fileID: 430284, guid: ac442fd7a0bbbec42910ecf3b43e7548, type: 3}
      propertyPath: m_LocalEulerAnglesHint.z
      value: 0
      objectReference: {fileID: 0}
    - target: {fileID: 430284, guid: ac442fd7a0bbbec42910ecf3b43e7548, type: 3}
      propertyPath: m_LocalScale.x
      value: 0.5000001
      objectReference: {fileID: 0}
    - target: {fileID: 430284, guid: ac442fd7a0bbbec42910ecf3b43e7548, type: 3}
      propertyPath: m_LocalScale.y
      value: 0.5
      objectReference: {fileID: 0}
    - target: {fileID: 430284, guid: ac442fd7a0bbbec42910ecf3b43e7548, type: 3}
      propertyPath: m_LocalScale.z
      value: 0.5000001
      objectReference: {fileID: 0}
    - target: {fileID: 19802350, guid: ac442fd7a0bbbec42910ecf3b43e7548, type: 3}
      propertyPath: InitialModule.startColor.minMaxState
      value: 1
      objectReference: {fileID: 0}
    - target: {fileID: 474768, guid: ac442fd7a0bbbec42910ecf3b43e7548, type: 3}
      propertyPath: m_LocalPosition.x
      value: 0.086
      objectReference: {fileID: 0}
    - target: {fileID: 474768, guid: ac442fd7a0bbbec42910ecf3b43e7548, type: 3}
      propertyPath: m_LocalPosition.z
      value: 1.459
      objectReference: {fileID: 0}
    - target: {fileID: 19877182, guid: ac442fd7a0bbbec42910ecf3b43e7548, type: 3}
      propertyPath: InitialModule.startRotationX.minMaxState
      value: 3
      objectReference: {fileID: 0}
    - target: {fileID: 19877182, guid: ac442fd7a0bbbec42910ecf3b43e7548, type: 3}
      propertyPath: InitialModule.startRotationY.minMaxState
      value: 3
      objectReference: {fileID: 0}
    - target: {fileID: 19877182, guid: ac442fd7a0bbbec42910ecf3b43e7548, type: 3}
      propertyPath: InitialModule.startSpeed.minScalar
      value: 0.2
      objectReference: {fileID: 0}
    - target: {fileID: 19877182, guid: ac442fd7a0bbbec42910ecf3b43e7548, type: 3}
      propertyPath: InitialModule.startSpeed.scalar
      value: 5
      objectReference: {fileID: 0}
    m_RemovedComponents: []
  m_SourcePrefab: {fileID: 100100000, guid: ac442fd7a0bbbec42910ecf3b43e7548, type: 3}
--- !u!4 &6282024368608527584 stripped
Transform:
  m_CorrespondingSourceObject: {fileID: 430284, guid: ac442fd7a0bbbec42910ecf3b43e7548,
    type: 3}
  m_PrefabInstance: {fileID: 6282024368608695340}
  m_PrefabAsset: {fileID: 0}
